id,first_name,last_name,email,gender,ip_address
1,Trip,McTavy,tmctavy0@histats.com,Male,186.190.212.232
2,Adolph,Noice,anoice1@hatena.ne.jp,Male,72.227.181.74
3,Marlie,Grogono,mgrogono2@furl.net,Female,253.77.238.203
4,Bettina,Tomankiewicz,btomankiewicz3@angelfire.com,Female,224.175.236.146
5,Cheryl,Gorke,cgorke4@mlb.com,Female,183.107.38.219
6,Zollie,Winterbourne,zwinterbourne5@lycos.com,Male,228.126.240.131
7,Xylina,Rippingall,xrippingall6@senate.gov,Female,76.199.172.131
8,Ev,Stanett,estanett7@cbsnews.com,Male,34.60.75.180
9,Ugo,Tipperton,utipperton8@amazon.de,Male,135.73.97.233
10,Miquela,Corbie,mcorbie9@gizmodo.com,Female,169.229.149.161
11,Timmy,Bramsen,tbramsena@devhub.com,Male,117.148.166.150
12,Jephthah,Lovelady,jloveladyb@epa.gov,Male,81.14.134.230
13,Christoffer,Campa,ccampac@redcross.org,Male,144.52.161.19
14,Domingo,Hatto,dhattod@yellowbook.com,Male,112.98.77.22
15,Boniface,Highwood,bhighwoode@imageshack.us,Male,244.43.221.156
16,Zachariah,Fiddyment,zfiddymentf@tripadvisor.com,Male,232.0.72.148
17,Melosa,Seebert,mseebertg@biblegateway.com,Female,122.37.140.245
18,Tabatha,Clampin,tclampinh@google.nl,Female,55.34.81.144
19,Florida,Mendus,fmendusi@un.org,Female,95.225.51.121
20,Dirk,Korous,dkorousj@ox.ac.uk,Male,162.53.186.217
21,Raffaello,Bapty,rbaptyk@yale.edu,Male,41.54.52.223
22,Bonnee,Eborn,bebornl@prlog.org,Female,186.199.226.89
23,Isacco,Cooch,icoochm@mapquest.com,Male,191.185.92.2
24,Robenia,Fraczkiewicz,rfraczkiewiczn@ustream.tv,Female,245.166.117.50
25,Nertie,Cossins,ncossinso@nsw.gov.au,Female,55.108.24.108
26,Kathryne,Gadie,kgadiep@jimdo.com,Female,218.195.5.139
27,Kristoffer,Jeakins,kjeakinsq@hud.gov,Male,11.128.48.138
28,Car,Whitloe,cwhitloer@addtoany.com,Male,174.115.189.252
29,Marna,Langland,mlanglands@plala.or.jp,Female,48.154.44.218
30,Courtney,Le feaver,clefeavert@fastcompany.com,Male,178.215.169.240
31,Morlee,Necrews,mnecrewsu@ovh.net,Male,69.163.213.146
32,Vin,Rapper,vrapperv@meetup.com,Female,81.212.134.196
33,Rae,Rubury,rruburyw@acquirethisname.com,Female,90.130.231.212
34,Hamil,Overthrow,hoverthrowx@yale.edu,Male,53.125.56.126
35,Gerri,Gallaway,ggallawayy@icq.com,Female,37.52.89.97
36,Bobbye,Rye,bryez@ustream.tv,Female,155.155.216.37
37,Perri,Sausman,psausman10@macromedia.com,Female,73.225.87.72
38,Deanna,Baselio,dbaselio11@123-reg.co.uk,Female,168.220.183.119
39,Merell,Menego,mmenego12@weebly.com,Male,201.26.124.151
40,Jill,Fordham,jfordham13@webnode.com,Female,134.164.44.209
41,Nanon,Ridding,nridding14@mlb.com,Female,12.72.114.211
42,Michal,McMorran,mmcmorran15@slate.com,Male,221.20.73.56
43,Lyndell,Storrier,lstorrier16@lycos.com,Female,82.168.253.88
44,Rickie,Semarke,rsemarke17@reuters.com,Female,24.172.243.214
45,Farrand,Duferie,fduferie18@tuttocitta.it,Female,172.210.240.84
46,Jereme,Windham,jwindham19@dell.com,Male,187.136.73.21
47,Thomasa,McGrayle,tmcgrayle1a@plala.or.jp,Female,244.196.147.240
48,Cora,Dowry,cdowry1b@macromedia.com,Female,167.74.209.105
49,Vicki,Wilkin,vwilkin1c@yandex.ru,Female,82.222.2.109
50,Nickie,Avramovitz,navramovitz1d@i2i.jp,Male,242.188.88.160
51,Giuseppe,Scogings,gscogings1e@wisc.edu,Male,174.26.255.14
52,Ashlin,Gamblin,agamblin1f@simplemachines.org,Male,190.66.88.113
53,Kristina,Yaneev,kyaneev1g@scribd.com,Female,218.200.33.179
54,Jenilee,Johnke,jjohnke1h@cpanel.net,Female,73.167.207.67
55,Cull,Ingleby,cingleby1i@google.com.au,Male,83.219.121.50
56,Lou,Patley,lpatley1j@privacy.gov.au,Male,111.122.128.78
57,Claudia,Ashment,cashment1k@usgs.gov,Female,208.109.252.154
58,Bryana,Scallan,bscallan1l@psu.edu,Female,47.168.102.25
59,Tommie,Dadson,tdadson1m@comcast.net,Female,174.142.198.122
60,Rik,Mossman,rmossman1n@arstechnica.com,Male,110.195.12.76
61,Terrel,Firebrace,tfirebrace1o@google.com,Male,130.245.106.78
62,Michele,Dransfield,mdransfield1p@globo.com,Female,36.204.61.4
63,Agata,Sheringham,asheringham1q@zimbio.com,Female,7.233.166.16
64,Johan,Arnell,jarnell1r@oakley.com,Male,22.232.85.164
65,Jolee,Batecok,jbatecok1s@hatena.ne.jp,Female,53.104.7.18
66,Melvin,Trevorrow,mtrevorrow1t@addtoany.com,Male,172.150.218.197
67,Preston,Doog,pdoog1u@gnu.org,Male,83.139.11.170
68,Brodie,Greenroad,bgreenroad1v@deviantart.com,Male,140.106.202.214
69,Gussi,Sprade,gsprade1w@mayoclinic.com,Female,154.112.191.208
70,Lazaro,Romayn,lromayn1x@reference.com,Male,34.135.158.40
71,Cassondra,McGraith,cmcgraith1y@quantcast.com,Female,101.33.205.160
72,Carrissa,Menaul,cmenaul1z@sbwire.com,Female,79.25.49.47
73,Wendell,Northover,wnorthover20@qq.com,Male,132.218.120.210
74,Gretta,Penkman,gpenkman21@vk.com,Female,73.137.252.234
75,Claudell,Deyenhardt,cdeyenhardt22@spotify.com,Male,248.9.136.12
76,Krisha,Poole,kpoole23@xing.com,Male,116.72.34.28
77,Abbey,Nisot,anisot24@alexa.com,Male,219.88.165.136
78,Sybila,Gentric,sgentric25@posterous.com,Female,147.105.132.88
79,Barney,Mourant,bmourant26@google.com.hk,Male,148.103.57.225
80,Karissa,Barroux,kbarroux27@microsoft.com,Female,238.88.77.173
81,Robinia,Elwood,relwood28@webs.com,Female,87.105.69.35
82,Lemar,Slateford,lslateford29@businesswire.com,Male,114.21.99.87
83,Michal,Yakebovitch,myakebovitch2a@sitemeter.com,Male,180.223.194.29
84,Carola,Flacke,cflacke2b@go.com,Female,38.114.174.110
85,Celina,Minelli,cminelli2c@mozilla.org,Female,224.51.138.239
86,Allyn,Alcock,aalcock2d@cdc.gov,Female,128.32.57.127
87,Melonie,Heak,mheak2e@weebly.com,Female,182.29.190.253
88,Barbi,Baselli,bbaselli2f@phpbb.com,Female,17.162.247.249
89,Augusto,Emmerson,aemmerson2g@123-reg.co.uk,Male,229.63.200.129
90,Akim,Jewks,ajewks2h@google.com.au,Male,127.8.9.228
91,Ardys,O'Brogane,aobrogane2i@discuz.net,Female,68.160.186.185
92,Silvester,Vasilyevski,svasilyevski2j@reuters.com,Male,161.122.253.148
93,Granville,Blackledge,gblackledge2k@seesaa.net,Male,72.169.174.50
94,Brenden,Holmyard,bholmyard2l@wikimedia.org,Male,196.7.138.41
95,Abby,Edmott,aedmott2m@bravesites.com,Male,126.198.231.137
96,Finlay,Mithon,fmithon2n@cocolog-nifty.com,Male,231.188.95.128
97,Hermie,Josselson,hjosselson2o@indiegogo.com,Male,148.74.243.174
98,Von,Liston,vliston2p@craigslist.org,Male,57.184.83.178
99,Luz,Wrigley,lwrigley2q@nasa.gov,Female,231.207.47.234
100,Ingar,Giacomini,igiacomini2r@reddit.com,Male,220.85.249.191
